…
##  [1] PassengerId Survived    Pclass      Name        Sex        
##  [6] Age         SibSp       Parch       Ticket      Fare       
## [11] Cabin       Embarked   
## <0 rows> (or 0-length row.names)

There is no rows having blank Embarked columns, mean repalcment was done successfully.

2.3 Missing value fix for Age

Find the row having missing/blank Age

titanic_mainData %>% filter(is.na(Age) | Age=='') %>% group_by(Pclass)

## # A tibble: 263 x 12
## # Groups:   Pclass [3]
##    PassengerId Survived Pclass Name  Sex     Age SibSp Parch Ticket   Fare
##          <int>    <int>  <int> <chr> <fct> <dbl> <int> <int> <chr>   <dbl>
##  1           6        0      3 Mora~ male     NA     0     0 330877   8.46
##  2          18        1      2 Will~ male     NA     0     0 244373  13   
##  3          20        1      3 Mass~ fema~    NA     0     0 2649     7.22
##  4          27        0      3 Emir~ male     NA     0     0 2631     7.22
##  5          29        1      3 "O'D~ fema~    NA     0     0 330959   7.88
##  6          30        0      3 Todo~ male     NA     0     0 349216   7.90
##  7          32        1      1 Spen~ fema~    NA     1     0 PC 17~ 147.  
##  8          33        1      3 Glyn~ fema~    NA     0     0 335677   7.75
##  9          37        1      3 Mame~ male     NA     0     0 2677     7.23
## 10          43        0      3 Krae~ male     NA     0     0 349253   7.90
## # ... with 253 more rows, and 2 more variables: Cabin <chr>,
## #   Embarked <chr>
…
